Marketing Data
…
  mutate(Income = as.numeric(gsub("[^0-9.-]", "",Income)),
         Dt_Customer = as.Date(Dt_Customer, "%m/%d/%y"),
         Education = as.factor(Education),
         Marital_Status = as.factor(Marital_Status),
         Country = as.factor(Country),
         AcceptedCmp1 = as.factor(AcceptedCmp1),
         AcceptedCmp2 = as.factor(AcceptedCmp2),
         AcceptedCmp3 = as.factor(AcceptedCmp3),
         AcceptedCmp4 = as.factor(AcceptedCmp4),
         AcceptedCmp5 = as.factor(AcceptedCmp5),
         Response = as.factor(Response),
         Age = 2021 - Year_Birth)
marketing

## # A tibble: 2,240 x 29
##       ID Year_Birth Education  Marital_Status Income Kidhome Teenhome Dt_Customer
##    <dbl>      <dbl> <fct>      <fct>           <dbl>   <dbl>    <dbl> <date>     
##  1  1826       1970 Graduation Divorced        84835       0        0 2014-06-16 
##  2     1       1961 Graduation Single          57091       0        0 2014-06-15 
##  3 10476       1958 Graduation Married         67267       0        1 2014-05-13 
##  4  1386       1967 Graduation Together        32474       1        1 2014-05-11 
##  5  5371       1989 Graduation Single          21474       1        0 2014-04-08 
##  6  7348       1958 PhD        Single          71691       0        0 2014-03-17 
##  7  4073       1954 2n Cycle   Married         63564       0        0 2014-01-29 
##  8  1991       1967 Graduation Together        44931       0        1 2014-01-18 
##  9  4047       1954 PhD        Married         65324       0        1 2014-01-11 
## 10  9477       1954 PhD        Married         65324       0        1 2014-01-11 
## # ... with 2,230 more rows, and 21 more variables: Recency <dbl>,
## #   MntWines <dbl>, MntFruits <dbl>, MntMeatProducts <dbl>,
## #   MntFishProducts <dbl>, MntSweetProducts <dbl>, MntGoldProds <dbl>,
## #   NumDealsPurchases <dbl>, NumWebPurchases <dbl>, NumCatalogPurchases <dbl>,
## #   NumStorePurchases <dbl>, NumWebVisitsMonth <dbl>, AcceptedCmp3 <fct>,
## #   AcceptedCmp4 <fct>, AcceptedCmp5 <fct>, AcceptedCmp1 <fct>,
## #   AcceptedCmp2 <fct>, Response <fct>, Complain <dbl>, Country <fct>, ...
…
